…
## 
## $M2_parent_siblings
## # A tibble: 7 x 4
##   statistic        value method                               notes       
##   <chr>            <dbl> <chr>                                <chr>       
## 1 cor            -0.0269 Pearson's product-moment correlation alternative…
## 2 t              -0.378  Pearson's product-moment correlation alternative…
## 3 df            198      Pearson's product-moment correlation alternative…
## 4 p               0.647  Pearson's product-moment correlation alternative…
## 5 95% CI lower   -0.143  Pearson's product-moment correlation alternative…
## 6 95% CI upper    1      Pearson's product-moment correlation alternative…
## 7 null value      0      Pearson's product-moment correlation alternative…
## 
## $M3_condition_anxiety
## # A tibble: 26 x 5
##    term_nr term                        statistic     value method         
##      <dbl> <chr>                       <chr>         <dbl> <chr>          
##  1       1 (Intercept)                 b          29.4     Linear regress…
##  2       1 (Intercept)                 SE          9.93    Linear regress…
##  3       1 (Intercept)                 t           2.97    Linear regress…
##  4       1 (Intercept)                 p           0.00340 Linear regress…
##  5       1 (Intercept)                 df        196       Linear regress…
##  6       2 conditionmortality salience b          20.3     Linear regress…
##  7       2 conditionmortality salience SE         14.0     Linear regress…
##  8       2 conditionmortality salience t           1.45    Linear regress…
##  9       2 conditionmortality salience p           0.149   Linear regress…
## 10       2 conditionmortality salience df        196       Linear regress…
## # ... with 16 more rows
## 
## $M4_condition_sex
…
